{
	"Attraktivität": { "points": 1, "only_creation": true, "max": 1 },
	"Ausdauernd": { "points": 1, "only_creation": false, "max": 1 },
	"Bastler": { "points": 1, "only_creation": false, "max": 1 },
	"Dämmersicht": { "points": 2, "only_creation": true, "max": 1 },
	"Einen Schritt voraus": { "points": 2, "only_creation": false, "max": 1 },
	"Entfernungssinn": { "points": 2, "only_creation": false, "max": 1 },
	"Erhöhte Fokusregeneration": { "points": 2, "only_creation": false, "max": 1 },
	"Erhöhte Lebensregeneration": { "points": 2, "only_creation": false, "max": 1 },
	"Erhöhter Fokuspool": { "points": 2, "only_creation": false, "max": 999 },
	"Erwählter der [Wesen]": { "points": 1, "only_creation": true, "max": 999 },
	"Feensinn": { "points": 1, "only_creation": true, "max": 1 },
	"Feine Nase": { "points": 1, "only_creation": true, "max": 1 },
	"Flink": { "points": 1, "only_creation": false, "max": 1 },
	"Gesellig": { "points": 1, "only_creation": false, "max": 1 },
	"Giftresistenz": { "points": 1, "only_creation": false, "max": 1 },
	"Gleichgewichtssinn": { "points": 1, "only_creation": false, "max": 1 },
	"Gutes Gedächtnis": { "points": 1, "only_creation": true, "max": 1 },
	"Hitzeresistenz": { "points": 1, "only_creation": false, "max": 1 },
	"Hoher Geistiger Widerstand": { "points": 2, "only_creation": false, "max": 4 },
	"Hoher Körperlicher Widerstand": { "points": 2, "only_creation": false, "max": 4 },
	"Kälteresistenz": { "points": 1, "only_creation": false, "max": 1 },
	"Konzentrationsstärke": { "points": 1, "only_creation": false, "max": 1 },
	"Krankheitsresistenz": { "points": 1, "only_creation": false, "max": 1 },
	"Kulturkunde": { "points": 1, "only_creation": false, "max": 1 },
	"Lastesel": { "points": 1, "only_creation": false, "max": 1 },
	"Literat": { "points": 1, "only_creation": false, "max": 1 },
	"Natürlicher Rüstungsschutz": { "points": 2, "only_creation": true, "max": 1 },
	"Natürliche Waffe": { "points": 1, "only_creation": true, "max": 1 },
	"Orientierungssinn": { "points": 1, "only_creation": false, "max": 1 },
	"Priester": { "points": 0, "only_creation": false, "max": 1 },
	"Robust": { "points": 2, "only_creation": false, "max": 3 },
	"Scharfes Gehör": { "points": 1, "only_creation": true, "max": 1 },
	"Scharfe Sicht": { "points": 1, "only_creation": true, "max": 1 },
	"Schmerzresistenz": { "points": 2, "only_creation": false, "max": 1 },
	"Soziales Gespür": { "points": 1, "only_creation": false, "max": 1 },
	"Stabile Magie": { "points": 1, "only_creation": false, "max": 1 },
	"Tierfreund": { "points": 1, "only_creation": false, "max": 1 },
	"Tiervertrauter": { "points": 1, "only_creation": false, "max": 1 },
	"Verbesserte Initiative": { "points": 2, "only_creation": false, "max": 1 },
	"Weltgewandt": { "points": 1, "only_creation": false, "max": 1 },
	"Zäh": { "points": 1, "only_creation": false, "max": 1 },
	"Zielstrebig": { "points": 1, "only_creation": false, "max": 1 },
	"Zusätzliche Splitterpunkte": { "points": 2, "only_creation": true, "max": 1 }
}
